"Snapshot","#23649329 ""discourse-1-03102020""
Price: € 0.0100/GB/month
GB used: 5.2653
Usage months: 1.0000
GB months: 5.2653
","2021-12-01","2021-12-31","5.2652820576","0.0100000000","0.0527",""
"Server cpx11","#7961352 ""rocket1.interfoodcoop.net""
Price: € 0.0060/h, max. € 3.4900/month
Usage: 744 h
Maximum price for this period: € 3.4900
","2021-12-01","2021-12-31","1.0000000000","3.4900000000","3.4900",""
"Backup","Server #7961352 ""rocket1.interfoodcoop.net""
Price: 20% of instance price
20% of € 3.4900
","2021-12-01","2021-12-31","1.0000000000","0.6980000000","0.6980",""
"Floating IPv4","#379813 ""116.202.178.235""
Price: 1.0000 €/month
Usage months: 1.0000
","2021-12-01","2021-12-31","1.0000000000","1.0000000000","1.0000",""
"Snapshot","#50968285 ""bbb1.interfoodcoop.net-bionic-bbb/2.3-1634727458""
Price: € 0.0100/GB/month
GB used: 5.3806
Usage months: 1.0000
GB months: 5.3806
","2021-12-01","2021-12-31","5.3805651445","0.0100000000","0.0538",""
"Snapshot","#34143226 ""bbb1.interfoodcoop.net-1616151870""
Price: € 0.0100/GB/month
GB used: 20.7136
Usage months: 1.0000
GB months: 20.7136
","2021-12-01","2021-12-31","20.7136371475","0.0100000000","0.2071",""
"Server cpx11","#7880405 ""nextcloud1.interfoodcoop.net""
Price: € 0.0060/h, max. € 3.4900/month
Usage: 744 h
Maximum price for this period: € 3.4900
","2021-12-01","2021-12-31","1.0000000000","3.4900000000","3.4900",""
"Backup","Server #7880405 ""nextcloud1.interfoodcoop.net""
Price: 20% of instance price
20% of € 3.4900
","2021-12-01","2021-12-31","1.0000000000","0.6980000000","0.6980",""
"Server cx21","#8319756 ""matrix1.interfoodcoop.net""
Price: € 0.0080/h, max. € 4.9000/month
Usage: 744 h
Maximum price for this period: € 4.9000
","2021-12-01","2021-12-31","1.0000000000","4.9000000000","4.9000",""
"Backup","Server #8319756 ""matrix1.interfoodcoop.net""
Price: 20% of instance price
20% of € 4.9000
","2021-12-01","2021-12-31","1.0000000000","0.9800000000","0.9800",""