"Cloud Project ""intercoop-cloud"" (01/08/2022 - 31/08/2022)","Snapshot","#72018524 ""bbb1.interfoodcoop.net-bionic-bbb/2.3-1654244207""
Price: € 0.0100/GB/month
GB used: 10.1212
Usage months: 1.0000
GB months: 10.1212
","2022-08-01","2022-08-31","10.1212113457","0.0100000000","0.1012",""
"Cloud Project ""intercoop-cloud"" (01/08/2022 - 31/08/2022)","Server cpx11","#7880405 ""nextcloud1.interfoodcoop.net""
Price: € 0.0052/h, max. € 2.9900/month
Usage: 744 h
Maximum price for this period: € 2.9900
","2022-08-01","2022-08-31","1.0000000000","2.9900000000","2.9900",""
"Cloud Project ""intercoop-cloud"" (01/08/2022 - 31/08/2022)","Backup","Server #7880405 ""nextcloud1.interfoodcoop.net""
Price: 20% of instance price
20% of € 2.9900
","2022-08-01","2022-08-31","1.0000000000","0.5980000000","0.5980",""
"Cloud Project ""intercoop-cloud"" (01/08/2022 - 31/08/2022)","IP","#6921289 ""168.119.116.241/32""
Price: € 0.0008/h, max. € 0.5000/month
Usage: 744 h
Maximum price for this period: € 0.5000
","2022-08-01","2022-08-31","1.0000000000","0.5000000000","0.5000",""
"Cloud Project ""intercoop-cloud"" (01/08/2022 - 31/08/2022)","Server cpx11","#7961352 ""rocket1.interfoodcoop.net""
Price: € 0.0052/h, max. € 2.9900/month
Usage: 744 h
Maximum price for this period: € 2.9900
","2022-08-01","2022-08-31","1.0000000000","2.9900000000","2.9900",""
"Cloud Project ""intercoop-cloud"" (01/08/2022 - 31/08/2022)","Backup","Server #7961352 ""rocket1.interfoodcoop.net""
Price: 20% of instance price
20% of € 2.9900
","2022-08-01","2022-08-31","1.0000000000","0.5980000000","0.5980",""
"Cloud Project ""intercoop-cloud"" (01/08/2022 - 31/08/2022)","Server cx21","#8319756 ""matrix1.interfoodcoop.net""
Price: € 0.0072/h, max. € 4.4000/month
Usage: 744 h
Maximum price for this period: € 4.4000
","2022-08-01","2022-08-31","1.0000000000","4.4000000000","4.4000",""
"Cloud Project ""intercoop-cloud"" (01/08/2022 - 31/08/2022)","Backup","Server #8319756 ""matrix1.interfoodcoop.net""
Price: 20% of instance price
20% of € 4.4000
","2022-08-01","2022-08-31","1.0000000000","0.8800000000","0.8800",""
"Cloud Project ""intercoop-cloud"" (01/08/2022 - 31/08/2022)","Floating IPv4","#379813 ""116.202.178.235""
Price: 3.0000 €/month
Usage months: 1.0000
","2022-08-01","2022-08-31","1.0000000000","3.0000000000","3.0000",""
"Cloud Project ""intercoop-cloud"" (01/08/2022 - 31/08/2022)","IP","#7218781 ""88.198.238.207/32""
Price: € 0.0008/h, max. € 0.5000/month
Usage: 744 h
Maximum price for this period: € 0.5000
","2022-08-01","2022-08-31","1.0000000000","0.5000000000","0.5000",""
"Cloud Project ""intercoop-cloud"" (01/08/2022 - 31/08/2022)","Snapshot","#61756666 ""bbb1.interfoodcoop.net-bionic-bbb/2.3-1645127015""
Price: € 0.0100/GB/month
GB used: 8.6342
Usage months: 1.0000
GB months: 8.6342
","2022-08-01","2022-08-31","8.6341913486","0.0100000000","0.0863",""
"Cloud Project ""intercoop-cloud"" (01/08/2022 - 31/08/2022)","IP","#6820144 ""94.130.97.32/32""
Price: € 0.0008/h, max. € 0.5000/month
Usage: 744 h
Maximum price for this period: € 0.5000
","2022-08-01","2022-08-31","1.0000000000","0.5000000000","0.5000",""