"Cloud Project ""intercoop-cloud"" (01/07/2023 - 31/07/2023)","Snapshot","2 Snapshots
Billed per GB per month
Quantity type: GB/Months
","2023-07-01","2023-07-31","18.7554026943","0.0110000000","0.2063",""
"Cloud Project ""intercoop-cloud"" (01/07/2023 - 31/07/2023)","IP","3 IPs
Billed monthly
Quantity type: Months
","2023-07-01","2023-07-31","3.0000000000","0.5000000000","1.5000",""
"Cloud Project ""intercoop-cloud"" (01/07/2023 - 31/07/2023)","Floating IPv4","1 Floating IP
Quantity type: Months
","2023-07-01","2023-07-31","1.0000000000","3.0000000000","3.0000",""
"Cloud Project ""intercoop-cloud"" (01/07/2023 - 31/07/2023)","Server cx21","1 Server
Billed monthly
Quantity type: Months
","2023-07-01","2023-07-31","1.0000000000","4.8500000000","4.8500",""
"Cloud Project ""intercoop-cloud"" (01/07/2023 - 31/07/2023)","Backup","Server Backup
20% of sum of instances prices: € 4.85000000000000000000
","2023-07-01","2023-07-31","1.0000000000","0.9700000000","0.9700",""
"Cloud Project ""intercoop-cloud"" (01/07/2023 - 31/07/2023)","Backup","Server Backups
20% of sum of instances prices: € 3.29000000000000000000
","2023-07-01","2023-07-31","2.0000000000","0.6580000000","1.3160",""
"Cloud Project ""intercoop-cloud"" (01/07/2023 - 31/07/2023)","Server cpx11","2 Servers
Billed monthly
Quantity type: Months
","2023-07-01","2023-07-31","2.0000000000","3.2900000000","6.5800",""
